[
    {
        "x": 0.133,
        "y": 0.143
    },{
        "x": 0.113,
        "y": 0.123
    },{
        "x": 0.143,
        "y": 0.143
    },{
        "x": 0.183,
        "y": 0.223
    },{
        "x": 0.315,
        "y": 0.123
    },{
        "x": 0.134,
        "y": 0.148
    },{
        "x": 0.212,
        "y": 0.225
    },{
        "x": 0.253,
        "y": 0.148
    },{
        "x": 0.213,
        "y": 0.223
    },{
        "x": 0.332,
        "y": 0.343
    },{
        "x": 0.317,
        "y": 0.222
    },{
        "x": 0.102,
        "y": 0.122
    },{
        "x": 0.233,
        "y": 0.343
    },{
        "x": 0.333,
        "y": 0.140
    },{
        "x": 0.110,
        "y": 0.122
    },{
        "x": 0.173,
        "y": 0.343
    },{
        "x": 0.281,
        "y": 0.122
    },{
        "x": 0.315,
        "y": 0.113
    },{
        "x": 0.234,
        "y": 0.149
    },{
        "x": 0.242,
        "y": 0.228
    },{
        "x": 0.353,
        "y": 0.248
    },{
        "x": 0.310,
        "y": 0.222
    },{
        "x": 0.139,
        "y": 0.380
    },{
        "x": 0.117,
        "y": 0.222
    },{
        "x": 0.192,
        "y": 0.102
    },{
        "x": 0.200,
        "y": 0.349
    },{
        "x": 0.132,
        "y": 0.140
    },{
        "x": 0.313,
        "y": 0.223
    },{
        "x": 0.141,
        "y": 0.142
    },{
        "x": 0.383,
        "y": 0.223
    },{
        "x": 0.312,
        "y": 0.123
    },{
        "x": 0.237,
        "y": 0.348
    },{
        "x": 0.214,
        "y": 0.200
    },{
        "x": 0.253,
        "y": 0.145
    },{
        "x": 0.218,
        "y": 0.243
    },{
        "x": 0.330,
        "y": 0.342
    },{
        "x": 0.117,
        "y": 0.122
    },{
        "x": 0.102,
        "y": 0.120
    },{
        "x": 0.253,
        "y": 0.356
    },{
        "x": 0.233,
        "y": 0.243
    },{
        "x": 0.117,
        "y": 0.126
    },{
        "x": 0.103,
        "y": 0.133
    },{
        "x": 0.113,
        "y": 0.293
    },{
        "x": 0.345,
        "y": 0.193
    },{
        "x": 0.194,
        "y": 0.198
    },{
        "x": 0.202,
        "y": 0.220
    },{
        "x": 0.293,
        "y": 0.188
    },{
        "x": 0.223,
        "y": 0.323
    },{
        "x": 0.332,
        "y": 0.341
    },{
        "x": 0.312,
        "y": 0.122
    },{
        "x": 0.302,
        "y": 0.222
    },{
        "x": 0.133,
        "y": 0.293
    },{
        "x": 0.133,
        "y": 0.173
    },{
        "x": 0.193,
        "y": 0.113
    },{
        "x": 0.243,
        "y": 0.144
    },{
        "x": 0.182,
        "y": 0.227
    },{
        "x": 0.115,
        "y": 0.223
    },{
        "x": 0.234,
        "y": 0.148
    },{
        "x": 0.312,
        "y": 0.225
    },{
        "x": 0.153,
        "y": 0.248
    },{
        "x": 0.210,
        "y": 0.224
    },{
        "x": 0.132,
        "y": 0.143
    },{
        "x": 0.217,
        "y": 0.252
    },{
        "x": 0.122,
        "y": 0.322
    },{
        "x": 0.333,
        "y": 0.363
    },{
        "x": 0.323,
        "y": 0.353
    }
]